<svg xmlns="http://www.w3.org/2000/svg" width="7.869" height="4.641" viewBox="0 0 7.869 4.641">
  <path id="Tracé_14" data-name="Tracé 14" d="M-652.97,334l3.227,3.227,3.227-3.227" transform="translate(653.677 -333.293)" fill="none" stroke="#707070" stroke-linecap="round" stroke-miterlimit="10" stroke-width="1"/>
</svg>
