<svg xmlns="http://www.w3.org/2000/svg" width="26.025" height="20.484" viewBox="0 0 26.025 20.484">
  <path id="Tracé_35" data-name="Tracé 35" d="M-59.371,1562.971a2.8,2.8,0,0,0-2.053-.866h-4.107v-.049a2.221,2.221,0,0,0-.668-1.608,2.264,2.264,0,0,0-1.608-.668h-7.422a2.279,2.279,0,0,0-1.633.668,2.263,2.263,0,0,0-.668,1.608v.049h-4.082a2.8,2.8,0,0,0-2.053.866,2.941,2.941,0,0,0-.866,2.053v12.32a2.8,2.8,0,0,0,.866,2.053,2.941,2.941,0,0,0,2.053.866h20.187a2.8,2.8,0,0,0,2.053-.866,2.941,2.941,0,0,0,.866-2.053v-12.32A2.8,2.8,0,0,0-59.371,1562.971Zm-12.147,12.988a4.834,4.834,0,0,1-3.364-1.385,4.729,4.729,0,0,1-1.385-3.364,4.834,4.834,0,0,1,1.385-3.364,4.729,4.729,0,0,1,3.364-1.385,4.834,4.834,0,0,1,3.364,1.385,4.729,4.729,0,0,1,1.385,3.364,4.629,4.629,0,0,1-1.385,3.364A4.834,4.834,0,0,1-71.517,1575.959Zm8.807-8.461a1.213,1.213,0,0,1-1.212-1.212,1.212,1.212,0,0,1,1.212-1.212,1.212,1.212,0,0,1,1.212,1.212A1.212,1.212,0,0,1-62.71,1567.5Z" transform="translate(84.53 -1559.78)" fill="#000"/>
</svg>
