<svg xmlns="http://www.w3.org/2000/svg" width="16.852" height="11.504" viewBox="0 0 16.852 11.504">
  <path id="letter_1_" data-name="letter (1)" d="M14.846-5.582H2.006A2.007,2.007,0,0,0,0-3.576V3.915A2.007,2.007,0,0,0,2.006,5.921h12.84a2.007,2.007,0,0,0,2.006-2.006V-3.576A2.007,2.007,0,0,0,14.846-5.582Zm-12.84.8h12.84A1.209,1.209,0,0,1,16.03-3.8L8.426.437.823-3.8A1.209,1.209,0,0,1,2.006-4.78Zm12.84,9.895H2.006a1.207,1.207,0,0,1-1.2-1.2V-2.894L8.229,1.247a.423.423,0,0,0,.2.052.38.38,0,0,0,.2-.052L16.05-2.894V3.911A1.2,1.2,0,0,1,14.846,5.115Zm0,0" transform="translate(0 5.582)" />
</svg>
