<svg xmlns="http://www.w3.org/2000/svg" width="13" height="13" viewBox="0 0 13 13">
    <defs>
        <style>
            .a{
                stroke : #000
            }
        </style>
    </defs>
    <line class="a" id="Ligne_12" data-name="Ligne 12" x2="13" transform="translate(0 6.5)" fill="none" stroke-width="1"/>
    <line class="a" id="Ligne_13" data-name="Ligne 13" x2="13" transform="translate(6.5) rotate(90)" fill="none" stroke-width="1"/>
</svg>
